Chocolate Ratings EDA
…
## Warning: `funs()` was deprecated in dplyr 0.8.0.
## Please use a list of either functions or lambdas: 
## 
##   # Simple named list: 
##   list(mean = mean, median = median)
## 
##   # Auto named with `tibble::lst()`: 
##   tibble::lst(mean, median)
## 
##   # Using lambdas
##   list(~ mean(., trim = .2), ~ median(., na.rm = TRUE))

temp[order(temp$Rating, decreasing = TRUE),]

## # A tibble: 23 x 2
##    Bean.Origin        Rating
##    <chr>               <dbl>
##  1 Guatemala            3.32
##  2 Vietnam              3.32
##  3 Papua New Guinea     3.29
##  4 Brazil               3.28
##  5 Madagascar           3.27
##  6 Venezuela            3.25
##  7 Belize               3.23
##  8 Colombia             3.22
##  9 Hawaii               3.21
## 10 Dominican Republic   3.21
## # ... with 13 more rows
…
